<?xml version="1.0" standalone="no"?>
<!DOCTYPE svg PUBLIC "-//W3C//DTD SVG 20010904//EN"
 "http://www.w3.org/TR/2001/REC-SVG-20010904/DTD/svg10.dtd">
<svg version="1.0" xmlns="http://www.w3.org/2000/svg"
 width="256.000000pt" height="256.000000pt" viewBox="0 0 256.000000 256.000000"
 preserveAspectRatio="xMidYMid meet">

<g transform="translate(0.000000,256.000000) scale(0.100000,-0.100000)"
fill="#ffffff" stroke="none">
<path d="M140 2320 c-11 -11 -20 -29 -20 -40 0 -11 9 -29 20 -40 17 -17 33
-20 100 -20 l80 0 0 -530 c0 -517 1 -531 20 -550 25 -25 55 -25 80 0 19 19 20
33 20 450 l0 430 884 0 c878 0 883 0 910 -21 18 -14 26 -30 26 -52 0 -18 -64
-225 -142 -460 -121 -362 -148 -435 -177 -468 -66 -79 -14 -73 -791 -79 l-695
-5 -38 -24 c-21 -13 -50 -42 -65 -64 -23 -34 -27 -52 -27 -107 0 -55 4 -73 27
-107 15 -22 44 -51 65 -64 l38 -24 530 -5 c493 -5 533 -6 559 -23 29 -19 56
-71 56 -107 0 -26 34 -60 60 -60 29 0 60 35 60 68 0 53 -32 125 -75 167 -75
75 -71 75 -647 75 l-509 0 -24 25 c-30 29 -32 74 -6 106 l19 24 694 5 c684 5
694 5 740 27 60 27 134 96 160 148 12 22 86 233 165 470 105 315 143 443 143
478 0 80 -47 150 -122 182 -33 13 -147 15 -928 15 l-890 0 0 80 c0 116 -6 120
-160 120 -107 0 -122 -2 -140 -20z"/>
<path d="M452 409 c-48 -14 -109 -80 -123 -131 -23 -89 12 -182 88 -229 57
-36 154 -34 210 3 62 41 88 90 88 168 0 77 -26 127 -85 166 -43 29 -125 39
-178 23z m123 -134 c50 -49 15 -135 -55 -135 -41 0 -80 39 -80 80 0 41 39 80
80 80 19 0 40 -9 55 -25z"/>
<path d="M1387 369 c-22 -13 -53 -74 -62 -121 -22 -117 93 -238 216 -226 65 7
127 49 157 108 39 78 22 150 -36 150 -30 0 -62 -34 -62 -65 0 -31 -41 -75 -69
-75 -35 0 -69 22 -82 53 -11 26 -10 35 9 71 27 51 28 70 2 96 -22 22 -46 25
-73 9z"/>
</g>
</svg>
